Pillow==2.7.0
argparse==1.2.1
backports.ssl-match-hostname==3.4.0.2
brukva==0.0.1
certifi==14.05.14
chardet==2.0.1
colorama==0.2.5
decorator==3.4.0
docopt==0.4.0
funcsigs==0.4
google-api-python-client==1.4.1
html5lib==0.999
httplib2==0.9.1
ipython==1.2.1
mandrill==1.0.57
meld3==0.6.10
mock==1.2.0
mongoengine==0.8.7
oauth2client==1.4.11
oauthlib==0.7.2
pbr==1.3.0
pexpect==3.1
pyasn1==0.1.7
pyasn1-modules==0.0.5
pymongo==2.7.2
python-dateutil==2.4.1
python-geoip==1.2
python-geoip-geolite2==2015.0303
requests==2.2.1
requests-oauthlib==0.4.2
simplegeneric==0.8.1
simplejson==3.7.3
six==1.9.0
smartfile==2.1-6
ssh-import-id==3.21
supervisor==3.0b2
tornado==4.0.2
uritemplate==0.6
urllib3==1.7.1
wsgiref==0.1.2
